<?xml version="1.0" encoding="UTF-8"?>
<svg width="16px" height="16px" viewBox="0 0 16 16" version="1.1" xmlns="http://www.w3.org/2000/svg" xmlns:xlink="http://www.w3.org/1999/xlink">
    <!-- Generator: Sketch 49 (51002) - http://www.bohemiancoding.com/sketch -->
    <title>ico_view_maps</title>
    <desc>Created with Sketch.</desc>
    <defs></defs>
    <g id="Symbols" stroke="none" stroke-width="1" fill="none" fill-rule="evenodd" stroke-linecap="round" stroke-linejoin="round">
        <g id="map_control" transform="translate(-10.000000, -92.000000)" stroke="#1A2B48">
            <g id="view">
                <g transform="translate(0.000000, 82.000000)">
                    <g id="Group" transform="translate(10.000000, 11.000000)">
                        <g id="ico_view_maps">
                            <ellipse id="Oval" cx="3.5" cy="11.0133333" rx="3" ry="2.98666667"></ellipse>
                            <path d="M6.50000189,11.0133333 L6.5,1.80444444 C6.50127951,0.931853913 5.85394863,0.19290625 4.98542936,0.0755165228 C4.11691009,-0.041873204 3.29511701,0.498506545 3.06266667,1.33985185 L0.607333333,10.2202074" id="Shape"></path>
                            <ellipse id="Oval" cx="12.5" cy="11.0133333" rx="3" ry="2.98666667"></ellipse>
                            <path d="M9.49999811,11.0133333 L9.5,1.80444444 C9.49872049,0.931853913 10.1460514,0.19290625 11.0145706,0.0755165228 C11.8830899,-0.041873204 12.704883,0.498506545 12.9373333,1.33985185 L15.3926667,10.2182163" id="Shape"></path>
                            <rect id="Rectangle-path" x="6.5" y="5.04" width="3" height="1.99111111"></rect>
                        </g>
                    </g>
                </g>
            </g>
        </g>
    </g>
</svg>