<?xml version="1.0" encoding="UTF-8"?>
<svg width="60px" height="60px" viewBox="0 0 60 60" version="1.1" xmlns="http://www.w3.org/2000/svg" xmlns:xlink="http://www.w3.org/1999/xlink">
    <!-- Generator: Sketch 53.2 (72643) - https://sketchapp.com -->
    <title>next</title>
    <desc>Created with Sketch.</desc>
    <g id="Page-1" stroke="none" stroke-width="1" fill="none" fill-rule="evenodd">
        <g id="09_gallery" transform="translate(-1330.000000, -2107.000000)">
            <g id="next" transform="translate(1360.000000, 2137.000000) rotate(-270.000000) translate(-1360.000000, -2137.000000) translate(1330.000000, 2107.000000)">
                <circle id="Oval-3" fill="#1A2B48" opacity="0.6" cx="30" cy="30" r="30"></circle>
                <g transform="translate(30.500000, 30.000000) rotate(-90.000000) translate(-30.500000, -30.000000) translate(19.000000, 25.000000)" id="keyboard-arrow-right" stroke="#FFFFFF" stroke-linecap="round" stroke-linejoin="round">
                    <g>
                        <polyline id="Shape" points="17.2619048 0.354285714 22.0238095 5.11619048 17.2619048 9.87809524"></polyline>
                        <path d="M22.0238095,5.11619048 L0.119047619,5.11619048" id="Shape"></path>
                    </g>
                </g>
            </g>
        </g>
    </g>
</svg>