<?xml version="1.0" encoding="UTF-8"?>
<svg width="24px" height="24px" viewBox="0 0 24 24" version="1.1" xmlns="http://www.w3.org/2000/svg" xmlns:xlink="http://www.w3.org/1999/xlink">
    <!-- Generator: Sketch 49 (51002) - http://www.bohemiancoding.com/sketch -->
    <title>ico_pre</title>
    <desc>Created with Sketch.</desc>
    <defs></defs>
    <g id="Hotel-layout" stroke="none" stroke-width="1" fill="none" fill-rule="evenodd" stroke-linecap="round" stroke-linejoin="round">
        <g id="Room_Detail_2" transform="translate(-58.000000, -499.000000)" stroke="#FFFFFF">
            <g id="room-detail" transform="translate(0.000000, 211.000000)">
                <g id="img">
                    <g id="nav-copy" transform="translate(50.000000, 280.000000)">
                        <g id="ico_pre" transform="translate(8.000000, 8.000000)">
                            <g id="Group" transform="translate(0.000000, 1.000000)">
                                <g id="Regular" stroke-width="1.5">
                                    <path d="M23.25,11 L0.75,11" id="Shape"></path>
                                    <polyline id="Shape" points="11.25 0.5 0.75 11 11.25 21.5"></polyline>
                                </g>
                            </g>
                        </g>
                    </g>
                </g>
            </g>
        </g>
    </g>
</svg>