<?xml version="1.0" encoding="UTF-8"?>
<svg width="14px" height="24px" viewBox="0 0 14 24" version="1.1" xmlns="http://www.w3.org/2000/svg" xmlns:xlink="http://www.w3.org/1999/xlink">
    <!-- Generator: Sketch 53.2 (72643) - https://sketchapp.com -->
    <title>icon_next</title>
    <desc>Created with Sketch.</desc>
    <g id="Page-1" stroke="none" stroke-width="1" fill="none" fill-rule="evenodd">
        <g id="01_Home" transform="translate(-1335.000000, -1211.000000)" fill="#A0A9B2">
            <g id="top-tour" transform="translate(90.000000, 910.000000)">
                <g id="icon_next" transform="translate(1245.000000, 301.000000)">
                    <g id="Path">
                        <polygon fill-rule="nonzero" points="1.59433813 0 0.0248776978 1.60509395 10.7671079 11.986572 0.0248776978 22.3652443 1.59388489 23.9723424 13.9976835 11.986572"></polygon>
                    </g>
                </g>
            </g>
        </g>
    </g>
</svg>